^C:\USERS\GAMESRSLY\DOCUMENTS\VISUAL STUDIO 2010\PROJECTS\NETWORKING2015\CLIENT\RELEASE\CLIENTMAIN.OBJ|C:\USERS\GAMESRSLY\DOCUMENTS\VISUAL STUDIO 2010\PROJECTS\NETWORKING2015\RELEASE\NETWORKLIB.LIB|C:\USERS\GAMESRSLY\DOCUMENTS\VISUAL STUDIO 2010\PROJECTS\NETWORKING2015\SDL\LIB\SDL.LIB|C:\USERS\GAMESRSLY\DOCUMENTS\VISUAL STUDIO 2010\PROJECTS\NETWORKING2015\SDL\LIB\SDLMAIN.LIB|C:\USERS\GAMESRSLY\DOCUMENTS\VISUAL STUDIO 2010\PROJECTS\NETWORKING2015\SDL\LIB\SDL_IMAGE.LIB|C:\USERS\GAMESRSLY\DOCUMENTS\VISUAL STUDIO 2010\PROJECTS\NETWORKING2015\SDL\LIB\SDL_NET.LIB|C:\USERS\GAMESRSLY\DOCUMENTS\VISUAL STUDIO 2010\PROJECTS\NETWORKING2015\SDL\LIB\SDL_TTF.LIB
C:\USERS\GAMESRSLY\DOCUMENTS\VISUAL STUDIO 2010\PROJECTS\NETWORKING2015\RELEASE\CLIENT.EXE
C:\USERS\GAMESRSLY\DOCUMENTS\VISUAL STUDIO 2010\PROJECTS\NETWORKING2015\CLIENT\RELEASE\CLIENT.EXE.INTERMEDIATE.MANIFEST
C:\USERS\GAMESRSLY\DOCUMENTS\VISUAL STUDIO 2010\PROJECTS\NETWORKING2015\RELEASE\CLIENT.PDB
