^C:\USERS\GAMESRSLY\DOCUMENTS\VISUAL STUDIO 2010\PROJECTS\NETWORKING2015\SERVER\RELEASE\SERVER.EXE.INTERMEDIATE.MANIFEST
C:\WINDOWS\GLOBALIZATION\SORTING\SORTDEFAULT.NLS
C:\WINDOWS\MICROSOFT.NET\FRAMEWORK\V2.0.50727\MSCORWKS.DLL
C:\WINDOWS\MICROSOFT.NET\FRAMEWORK\V4.0.30319\CLR.DLL
C:\PROGRAM FILES (X86)\MICROSOFT SDKS\WINDOWS\V7.0A\BIN\MT.EXE.CONFIG
C:\USERS\GAMESRSLY\DOCUMENTS\VISUAL STUDIO 2010\PROJECTS\NETWORKING2015\RELEASE\SERVER.EXE
