^C:\USERS\GAMESRSLY\DOCUMENTS\VISUAL STUDIO 2010\PROJECTS\NETWORKING2015\CLIENT\DEBUG\CLIENT.EXE.EMBED.MANIFEST.RES|C:\USERS\GAMESRSLY\DOCUMENTS\VISUAL STUDIO 2010\PROJECTS\NETWORKING2015\CLIENT\DEBUG\CLIENTMAIN.OBJ|C:\USERS\GAMESRSLY\DOCUMENTS\VISUAL STUDIO 2010\PROJECTS\NETWORKING2015\DEBUG\NETWORKLIB.LIB|C:\USERS\GAMESRSLY\DOCUMENTS\VISUAL STUDIO 2010\PROJECTS\NETWORKING2015\SDL\LIB\SDL.LIB|C:\USERS\GAMESRSLY\DOCUMENTS\VISUAL STUDIO 2010\PROJECTS\NETWORKING2015\SDL\LIB\SDLMAIN.LIB|C:\USERS\GAMESRSLY\DOCUMENTS\VISUAL STUDIO 2010\PROJECTS\NETWORKING2015\SDL\LIB\SDL_IMAGE.LIB|C:\USERS\GAMESRSLY\DOCUMENTS\VISUAL STUDIO 2010\PROJECTS\NETWORKING2015\SDL\LIB\SDL_NET.LIB|C:\USERS\GAMESRSLY\DOCUMENTS\VISUAL STUDIO 2010\PROJECTS\NETWORKING2015\SDL\LIB\SDL_TTF.LIB
C:\USERS\GAMESRSLY\DOCUMENTS\VISUAL STUDIO 2010\PROJECTS\NETWORKING2015\DEBUG\CLIENT.ILK
C:\USERS\GAMESRSLY\DOCUMENTS\VISUAL STUDIO 2010\PROJECTS\NETWORKING2015\DEBUG\CLIENT.EXE
C:\USERS\GAMESRSLY\DOCUMENTS\VISUAL STUDIO 2010\PROJECTS\NETWORKING2015\CLIENT\DEBUG\CLIENT.EXE.INTERMEDIATE.MANIFEST
C:\USERS\GAMESRSLY\DOCUMENTS\VISUAL STUDIO 2010\PROJECTS\NETWORKING2015\DEBUG\CLIENT.PDB
