^C:\USERS\GAMESRSLY\DOCUMENTS\VISUAL STUDIO 2010\PROJECTS\NETWORKING2015\CLIENT\DEBUG\CLIENT.EXE.EMBED.MANIFEST.RES|C:\USERS\GAMESRSLY\DOCUMENTS\VISUAL STUDIO 2010\PROJECTS\NETWORKING2015\CLIENT\DEBUG\CLIENTMAIN.OBJ|C:\USERS\GAMESRSLY\DOCUMENTS\VISUAL STUDIO 2010\PROJECTS\NETWORKING2015\DEBUG\NETWORKLIB.LIB|C:\USERS\GAMESRSLY\DOCUMENTS\VISUAL STUDIO 2010\PROJECTS\NETWORKING2015\SDL\LIB\SDL.LIB|C:\USERS\GAMESRSLY\DOCUMENTS\VISUAL STUDIO 2010\PROJECTS\NETWORKING2015\SDL\LIB\SDLMAIN.LIB|C:\USERS\GAMESRSLY\DOCUMENTS\VISUAL STUDIO 2010\PROJECTS\NETWORKING2015\SDL\LIB\SDL_IMAGE.LIB|C:\USERS\GAMESRSLY\DOCUMENTS\VISUAL STUDIO 2010\PROJECTS\NETWORKING2015\SDL\LIB\SDL_NET.LIB|C:\USERS\GAMESRSLY\DOCUMENTS\VISUAL STUDIO 2010\PROJECTS\NETWORKING2015\SDL\LIB\SDL_TTF.LIB
C:\PROGRAM FILES (X86)\MICROSOFT SDKS\WINDOWS\V7.0A\LIB\KERNEL32.LIB
C:\PROGRAM FILES (X86)\MICROSOFT SDKS\WINDOWS\V7.0A\LIB\USER32.LIB
C:\PROGRAM FILES (X86)\MICROSOFT SDKS\WINDOWS\V7.0A\LIB\GDI32.LIB
C:\PROGRAM FILES (X86)\MICROSOFT SDKS\WINDOWS\V7.0A\LIB\WINSPOOL.LIB
C:\PROGRAM FILES (X86)\MICROSOFT SDKS\WINDOWS\V7.0A\LIB\COMDLG32.LIB
C:\PROGRAM FILES (X86)\MICROSOFT SDKS\WINDOWS\V7.0A\LIB\ADVAPI32.LIB
C:\PROGRAM FILES (X86)\MICROSOFT SDKS\WINDOWS\V7.0A\LIB\SHELL32.LIB
C:\PROGRAM FILES (X86)\MICROSOFT SDKS\WINDOWS\V7.0A\LIB\OLE32.LIB
C:\PROGRAM FILES (X86)\MICROSOFT SDKS\WINDOWS\V7.0A\LIB\OLEAUT32.LIB
C:\PROGRAM FILES (X86)\MICROSOFT SDKS\WINDOWS\V7.0A\LIB\UUID.LIB
C:\PROGRAM FILES (X86)\MICROSOFT SDKS\WINDOWS\V7.0A\LIB\ODBC32.LIB
C:\PROGRAM FILES (X86)\MICROSOFT SDKS\WINDOWS\V7.0A\LIB\ODBCCP32.LIB
C:\USERS\GAMESRSLY\DOCUMENTS\VISUAL STUDIO 2010\PROJECTS\NETWORKING2015\CLIENT\DEBUG\CLIENT.EXE.EMBED.MANIFEST.RES
C:\USERS\GAMESRSLY\DOCUMENTS\VISUAL STUDIO 2010\PROJECTS\NETWORKING2015\CLIENT\DEBUG\CLIENTMAIN.OBJ
C:\USERS\GAMESRSLY\DOCUMENTS\VISUAL STUDIO 2010\PROJECTS\NETWORKING2015\DEBUG\NETWORKLIB.LIB
C:\USERS\GAMESRSLY\DOCUMENTS\VISUAL STUDIO 2010\PROJECTS\NETWORKING2015\SDL\LIB\SDL.LIB
C:\USERS\GAMESRSLY\DOCUMENTS\VISUAL STUDIO 2010\PROJECTS\NETWORKING2015\SDL\LIB\SDLMAIN.LIB
C:\USERS\GAMESRSLY\DOCUMENTS\VISUAL STUDIO 2010\PROJECTS\NETWORKING2015\SDL\LIB\SDL_IMAGE.LIB
C:\USERS\GAMESRSLY\DOCUMENTS\VISUAL STUDIO 2010\PROJECTS\NETWORKING2015\SDL\LIB\SDL_NET.LIB
C:\USERS\GAMESRSLY\DOCUMENTS\VISUAL STUDIO 2010\PROJECTS\NETWORKING2015\SDL\LIB\SDL_TTF.LIB
C:\WINDOWS\GLOBALIZATION\SORTING\SORTDEFAULT.NLS
C:\PROGRAM FILES (X86)\MICROSOFT VISUAL STUDIO 10.0\VC\LIB\MSVCPRTD.LIB
C:\PROGRAM FILES (X86)\MICROSOFT VISUAL STUDIO 10.0\VC\LIB\MSVCRTD.LIB
C:\PROGRAM FILES (X86)\MICROSOFT VISUAL STUDIO 10.0\VC\LIB\OLDNAMES.LIB
C:\PROGRAM FILES (X86)\MICROSOFT VISUAL STUDIO 10.0\VC\BIN\CVTRES.EXE
C:\WINDOWS\SYSTEM32\TZRES.DLL
C:\USERS\GAMESRSLY\DOCUMENTS\VISUAL STUDIO 2010\PROJECTS\NETWORKING2015\DEBUG\CLIENT.EXE
C:\WINDOWS\SYSTEM32\RSAENH.DLL
