^C:\USERS\GAMESRSLY\DOCUMENTS\VISUAL STUDIO 2010\PROJECTS\NETWORKING2015\NETWORKLIB\RELEASE\ANMSG.OBJ|C:\USERS\GAMESRSLY\DOCUMENTS\VISUAL STUDIO 2010\PROJECTS\NETWORKING2015\NETWORKLIB\RELEASE\CLIENT.OBJ|C:\USERS\GAMESRSLY\DOCUMENTS\VISUAL STUDIO 2010\PROJECTS\NETWORKING2015\NETWORKLIB\RELEASE\CLIENTSOCKET.OBJ|C:\USERS\GAMESRSLY\DOCUMENTS\VISUAL STUDIO 2010\PROJECTS\NETWORKING2015\NETWORKLIB\RELEASE\ERRORREPORT.OBJ|C:\USERS\GAMESRSLY\DOCUMENTS\VISUAL STUDIO 2010\PROJECTS\NETWORKING2015\NETWORKLIB\RELEASE\EVENTLISTENER.OBJ|C:\USERS\GAMESRSLY\DOCUMENTS\VISUAL STUDIO 2010\PROJECTS\NETWORKING2015\NETWORKLIB\RELEASE\EVENTPOLLER.OBJ|C:\USERS\GAMESRSLY\DOCUMENTS\VISUAL STUDIO 2010\PROJECTS\NETWORKING2015\NETWORKLIB\RELEASE\FILE.OBJ|C:\USERS\GAMESRSLY\DOCUMENTS\VISUAL STUDIO 2010\PROJECTS\NETWORKING2015\NETWORKLIB\RELEASE\GAME.OBJ|C:\USERS\GAMESRSLY\DOCUMENTS\VISUAL STUDIO 2010\PROJECTS\NETWORKING2015\NETWORKLIB\RELEASE\GAMEMESSAGE.OBJ|C:\USERS\GAMESRSLY\DOCUMENTS\VISUAL STUDIO 2010\PROJECTS\NETWORKING2015\NETWORKLIB\RELEASE\GAMEOBJECT.OBJ|C:\USERS\GAMESRSLY\DOCUMENTS\VISUAL STUDIO 2010\PROJECTS\NETWORKING2015\NETWORKLIB\RELEASE\GAMESTATE.OBJ|C:\USERS\GAMESRSLY\DOCUMENTS\VISUAL STUDIO 2010\PROJECTS\NETWORKING2015\NETWORKLIB\RELEASE\GMGETTURN.OBJ|C:\USERS\GAMESRSLY\DOCUMENTS\VISUAL STUDIO 2010\PROJECTS\NETWORKING2015\NETWORKLIB\RELEASE\IMAGE.OBJ|C:\USERS\GAMESRSLY\DOCUMENTS\VISUAL STUDIO 2010\PROJECTS\NETWORKING2015\NETWORKLIB\RELEASE\MEMORY.OBJ|C:\USERS\GAMESRSLY\DOCUMENTS\VISUAL STUDIO 2010\PROJECTS\NETWORKING2015\NETWORKLIB\RELEASE\MESSAGEQUEUE.OBJ|C:\USERS\GAMESRSLY\DOCUMENTS\VISUAL STUDIO 2010\PROJECTS\NETWORKING2015\NETWORKLIB\RELEASE\MUTEX.OBJ|C:\USERS\GAMESRSLY\DOCUMENTS\VISUAL STUDIO 2010\PROJECTS\NETWORKING2015\NETWORKLIB\RELEASE\SCREEN.OBJ|C:\USERS\GAMESRSLY\DOCUMENTS\VISUAL STUDIO 2010\PROJECTS\NETWORKING2015\NETWORKLIB\RELEASE\SERVER.OBJ|C:\USERS\GAMESRSLY\DOCUMENTS\VISUAL STUDIO 2010\PROJECTS\NETWORKING2015\NETWORKLIB\RELEASE\SERVERMESSAGEQUEUE.OBJ|C:\USERS\GAMESRSLY\DOCUMENTS\VISUAL STUDIO 2010\PROJECTS\NETWORKING2015\NETWORKLIB\RELEASE\SERVERSOCKET.OBJ|C:\USERS\GAMESRSLY\DOCUMENTS\VISUAL STUDIO 2010\PROJECTS\NETWORKING2015\NETWORKLIB\RELEASE\SIMPLECOLLISIONSYSTEM.OBJ|C:\USERS\GAMESRSLY\DOCUMENTS\VISUAL STUDIO 2010\PROJECTS\NETWORKING2015\NETWORKLIB\RELEASE\SOCKET.OBJ|C:\USERS\GAMESRSLY\DOCUMENTS\VISUAL STUDIO 2010\PROJECTS\NETWORKING2015\NETWORKLIB\RELEASE\SOCKETMESSAGE.OBJ|C:\USERS\GAMESRSLY\DOCUMENTS\VISUAL STUDIO 2010\PROJECTS\NETWORKING2015\NETWORKLIB\RELEASE\SPLASHSTATE.OBJ|C:\USERS\GAMESRSLY\DOCUMENTS\VISUAL STUDIO 2010\PROJECTS\NETWORKING2015\NETWORKLIB\RELEASE\SPRITE.OBJ|C:\USERS\GAMESRSLY\DOCUMENTS\VISUAL STUDIO 2010\PROJECTS\NETWORKING2015\NETWORKLIB\RELEASE\SPRITESHEET.OBJ|C:\USERS\GAMESRSLY\DOCUMENTS\VISUAL STUDIO 2010\PROJECTS\NETWORKING2015\NETWORKLIB\RELEASE\THREAD.OBJ|C:\USERS\GAMESRSLY\DOCUMENTS\VISUAL STUDIO 2010\PROJECTS\NETWORKING2015\NETWORKLIB\RELEASE\TIMER.OBJ
C:\WINDOWS\SYSTEM32\TZRES.DLL
C:\USERS\GAMESRSLY\DOCUMENTS\VISUAL STUDIO 2010\PROJECTS\NETWORKING2015\NETWORKLIB\RELEASE\ANMSG.OBJ
C:\USERS\GAMESRSLY\DOCUMENTS\VISUAL STUDIO 2010\PROJECTS\NETWORKING2015\NETWORKLIB\RELEASE\CLIENT.OBJ
C:\USERS\GAMESRSLY\DOCUMENTS\VISUAL STUDIO 2010\PROJECTS\NETWORKING2015\NETWORKLIB\RELEASE\CLIENTSOCKET.OBJ
C:\USERS\GAMESRSLY\DOCUMENTS\VISUAL STUDIO 2010\PROJECTS\NETWORKING2015\NETWORKLIB\RELEASE\ERRORREPORT.OBJ
C:\USERS\GAMESRSLY\DOCUMENTS\VISUAL STUDIO 2010\PROJECTS\NETWORKING2015\NETWORKLIB\RELEASE\EVENTLISTENER.OBJ
C:\USERS\GAMESRSLY\DOCUMENTS\VISUAL STUDIO 2010\PROJECTS\NETWORKING2015\NETWORKLIB\RELEASE\EVENTPOLLER.OBJ
C:\USERS\GAMESRSLY\DOCUMENTS\VISUAL STUDIO 2010\PROJECTS\NETWORKING2015\NETWORKLIB\RELEASE\FILE.OBJ
C:\USERS\GAMESRSLY\DOCUMENTS\VISUAL STUDIO 2010\PROJECTS\NETWORKING2015\NETWORKLIB\RELEASE\GAME.OBJ
C:\USERS\GAMESRSLY\DOCUMENTS\VISUAL STUDIO 2010\PROJECTS\NETWORKING2015\NETWORKLIB\RELEASE\GAMEMESSAGE.OBJ
C:\USERS\GAMESRSLY\DOCUMENTS\VISUAL STUDIO 2010\PROJECTS\NETWORKING2015\NETWORKLIB\RELEASE\GAMEOBJECT.OBJ
C:\USERS\GAMESRSLY\DOCUMENTS\VISUAL STUDIO 2010\PROJECTS\NETWORKING2015\NETWORKLIB\RELEASE\GAMESTATE.OBJ
C:\USERS\GAMESRSLY\DOCUMENTS\VISUAL STUDIO 2010\PROJECTS\NETWORKING2015\NETWORKLIB\RELEASE\GMGETTURN.OBJ
C:\USERS\GAMESRSLY\DOCUMENTS\VISUAL STUDIO 2010\PROJECTS\NETWORKING2015\NETWORKLIB\RELEASE\IMAGE.OBJ
C:\USERS\GAMESRSLY\DOCUMENTS\VISUAL STUDIO 2010\PROJECTS\NETWORKING2015\NETWORKLIB\RELEASE\MEMORY.OBJ
C:\USERS\GAMESRSLY\DOCUMENTS\VISUAL STUDIO 2010\PROJECTS\NETWORKING2015\NETWORKLIB\RELEASE\MESSAGEQUEUE.OBJ
C:\USERS\GAMESRSLY\DOCUMENTS\VISUAL STUDIO 2010\PROJECTS\NETWORKING2015\NETWORKLIB\RELEASE\MUTEX.OBJ
C:\USERS\GAMESRSLY\DOCUMENTS\VISUAL STUDIO 2010\PROJECTS\NETWORKING2015\NETWORKLIB\RELEASE\SCREEN.OBJ
C:\USERS\GAMESRSLY\DOCUMENTS\VISUAL STUDIO 2010\PROJECTS\NETWORKING2015\NETWORKLIB\RELEASE\SERVER.OBJ
C:\USERS\GAMESRSLY\DOCUMENTS\VISUAL STUDIO 2010\PROJECTS\NETWORKING2015\NETWORKLIB\RELEASE\SERVERMESSAGEQUEUE.OBJ
C:\USERS\GAMESRSLY\DOCUMENTS\VISUAL STUDIO 2010\PROJECTS\NETWORKING2015\NETWORKLIB\RELEASE\SERVERSOCKET.OBJ
C:\USERS\GAMESRSLY\DOCUMENTS\VISUAL STUDIO 2010\PROJECTS\NETWORKING2015\NETWORKLIB\RELEASE\SIMPLECOLLISIONSYSTEM.OBJ
C:\USERS\GAMESRSLY\DOCUMENTS\VISUAL STUDIO 2010\PROJECTS\NETWORKING2015\NETWORKLIB\RELEASE\SOCKET.OBJ
C:\USERS\GAMESRSLY\DOCUMENTS\VISUAL STUDIO 2010\PROJECTS\NETWORKING2015\NETWORKLIB\RELEASE\SOCKETMESSAGE.OBJ
C:\USERS\GAMESRSLY\DOCUMENTS\VISUAL STUDIO 2010\PROJECTS\NETWORKING2015\NETWORKLIB\RELEASE\SPLASHSTATE.OBJ
C:\USERS\GAMESRSLY\DOCUMENTS\VISUAL STUDIO 2010\PROJECTS\NETWORKING2015\NETWORKLIB\RELEASE\SPRITE.OBJ
C:\USERS\GAMESRSLY\DOCUMENTS\VISUAL STUDIO 2010\PROJECTS\NETWORKING2015\NETWORKLIB\RELEASE\SPRITESHEET.OBJ
C:\USERS\GAMESRSLY\DOCUMENTS\VISUAL STUDIO 2010\PROJECTS\NETWORKING2015\NETWORKLIB\RELEASE\THREAD.OBJ
C:\USERS\GAMESRSLY\DOCUMENTS\VISUAL STUDIO 2010\PROJECTS\NETWORKING2015\NETWORKLIB\RELEASE\TIMER.OBJ
C:\WINDOWS\GLOBALIZATION\SORTING\SORTDEFAULT.NLS
